Verilog finished/pixelTop_tb.vcd
$date
	Tue Nov  9 14:19:14 2021
$end
$version
	Icarus Verilog
$end
$timescale
	1ps
$end
$scope module pixelTop_tb $end
$var wire 8 ! data_out [7:0] $end
$var reg 1 " clk $end
$var reg 1 # reset $end
$scope module ALPHA $end
$var wire 1 " CLK $end
$var wire 8 $ DATA [7:0] $end
$var wire 1 # RESET $end
$var wire 1 % anaReset $end
$var wire 1 & read4 $end
$var wire 1 ' read3 $end
$var wire 1 ( read2 $end
$var wire 1 ) read1 $end
$var wire 1 * expose $end
$var wire 1 + erase $end
$var wire 1 , convert $end
$var wire 1 - anaRamp $end
$var wire 1 . anaBias $end
$scope module FSM $end
$var wire 8 / DATA [7:0] $end
$var wire 1 " clk $end
$var wire 1 # reset $end
$var reg 1 , convert $end
$var reg 1 + erase $end
$var reg 1 * expose $end
$var reg 3 0 next_state [2:0] $end
$var reg 8 1 p_data [7:0] $end
$var reg 1 ) read1 $end
$var reg 1 ( read2 $end
$var reg 1 ' read3 $end
$var reg 1 & read4 $end
$var reg 3 2 state [2:0] $end
$var integer 32 3 counter [31:0] $end
$upscope $end
$scope module PIX_ARR $end
$var wire 1 " CLK $end
$var wire 1 , CONVERT $end
$var wire 8 4 DATA [7:0] $end
$var wire 1 + ERASE $end
$var wire 1 * EXPOSE $end
$var wire 1 - RAMP $end
$var wire 1 ) READ1 $end
$var wire 1 ( READ2 $end
$var wire 1 ' READ3 $end
$var wire 1 & READ4 $end
$var wire 1 % RESET $end
$var wire 1 . VBN1 $end
$scope module PX1 $end
$var wire 8 5 DATA [7:0] $end
$var wire 1 + ERASE $end
$var wire 1 * EXPOSE $end
$var wire 1 - RAMP $end
$var wire 1 ) READ $end
$var wire 1 % RESET $end
$var wire 1 . VBN1 $end
$var reg 1 6 cmp $end
$var reg 8 7 p_data [7:0] $end
$var real 1 8 adc $end
$var real 1 9 lsb $end
$var real 1 : tmp $end
$var real 1 ; v_erase $end
$upscope $end
$scope module PX2 $end
$var wire 8 < DATA [7:0] $end
$var wire 1 + ERASE $end
$var wire 1 * EXPOSE $end
$var wire 1 - RAMP $end
$var wire 1 ( READ $end
$var wire 1 % RESET $end
$var wire 1 . VBN1 $end
$var reg 1 = cmp $end
$var reg 8 > p_data [7:0] $end
$var real 1 ? adc $end
$var real 1 @ lsb $end
$var real 1 A tmp $end
$var real 1 B v_erase $end
$upscope $end
$scope module PX3 $end
$var wire 8 C DATA [7:0] $end
$var wire 1 + ERASE $end
$var wire 1 * EXPOSE $end
$var wire 1 - RAMP $end
$var wire 1 ' READ $end
$var wire 1 % RESET $end
$var wire 1 . VBN1 $end
$var reg 1 D cmp $end
$var reg 8 E p_data [7:0] $end
$var real 1 F adc $end
$var real 1 G lsb $end
$var real 1 H tmp $end
$var real 1 I v_erase $end
$upscope $end
$scope module PX4 $end
$var wire 8 J DATA [7:0] $end
$var wire 1 + ERASE $end
$var wire 1 * EXPOSE $end
$var wire 1 - RAMP $end
$var wire 1 & READ $end
$var wire 1 % RESET $end
$var wire 1 . VBN1 $end
$var reg 1 K cmp $end
$var reg 8 L p_data [7:0] $end
$var real 1 M adc $end
$var real 1 N lsb $end
$var real 1 O tmp $end
$var real 1 P v_erase $end
$upscope $end
$upscope $end
$upscope $end
$upscope $end
$enddefinitions $end
#500000
$dumpvars
r1.2 P
r0 O
r0.004705882352941176 N
r0 M
bx L
xK
bx J
r1.2 I
r0 H
r0.004705882352941176 G
r0 F
bx E
xD
bx C
r1.2 B
r0 A
r0.004705882352941176 @
r0 ?
bx >
x=
bx <
r1.2 ;
r0 :
r0.004705882352941176 9
r0 8
bx 7
x6
bx 5
bx 4
b0 3
b0 2
b0 1
b0 0
bx /
x.
0-
0,
x+
x*
x)
x(
x'
x&
1%
bx $
0#
1"
bx !
$end
#1000000
bz !
bz $
bz /
bz 4
bz 5
bz <
bz C
bz J
0K
bz L
r1.2 O
0D
bz E
r1.2 H
0=
bz >
r1.2 A
06
bz 7
r1.2 :
0*
0&
0'
0(
0)
1+
0.
0"
#1500000
b1 3
1"
#2000000
0"
#2500000
b10 3
1"
#3000000
0"
#3500000
b11 3
1"
#4000000
0"
#4500000
b100 3
1"
#5000000
0"
#5500000
b101 3
1"
#6000000
0"
#6500000
b111 2
b1 0
b110 3
1"
#7000000
b0 7
b0 >
b0 E
b0 L
0+
0"
#7500000
b1 2
b0 3
1"
#8000000
1*
0"
#8500000
r1.195294117647059 O
r1.196705882352941 H
r1.198588235294118 A
1.
b1 3
1"
#9000000
0.
0"
#9500000
r1.197176470588235 A
r1.193411764705882 H
r1.190588235294118 O
1.
b10 3
1"
#10000000
0.
0"
#10500000
r1.185882352941177 O
r1.190117647058823 H
r1.195764705882353 A
1.
b11 3
1"
#11000000
0.
0"
#11500000
r1.19435294117647 A
r1.186823529411764 H
r1.181176470588235 O
1.
b100 3
1"
#12000000
0.
0"
#12500000
r1.176470588235294 O
r1.183529411764705 H
r1.192941176470588 A
1.
b101 3
1"
#13000000
0.
0"
#13500000
r1.191529411764705 A
r1.180235294117647 H
r1.171764705882353 O
1.
b110 3
1"
#14000000
0.
0"
#14500000
r1.167058823529412 O
r1.176941176470588 H
r1.190117647058823 A
1.
b111 3
1"
#15000000
0.
0"
#15500000
r1.18870588235294 A
r1.173647058823529 H
r1.162352941176471 O
1.
b1000 3
1"
#16000000
0.
0"
#16500000
r1.15764705882353 O
r1.17035294117647 H
r1.187294117647058 A
1.
b1001 3
1"
#17000000
0.
0"
#17500000
r1.185882352941175 A
r1.167058823529411 H
r1.152941176470589 O
1.
b1010 3
1"
#18000000
0.
0"
#18500000
r1.148235294117648 O
r1.163764705882352 H
r1.184470588235293 A
1.
b1011 3
1"
#19000000
0.
0"
#19500000
r1.183058823529411 A
r1.160470588235293 H
r1.143529411764707 O
1.
b1100 3
1"
#20000000
0.
0"
#20500000
r1.138823529411765 O
r1.157176470588234 H
r1.181647058823528 A
1.
b1101 3
1"
#21000000
0.
0"
#21500000
r1.180235294117646 A
r1.153882352941175 H
r1.134117647058824 O
1.
b1110 3
1"
#22000000
0.
0"
#22500000
r1.129411764705883 O
r1.150588235294117 H
r1.178823529411763 A
1.
b1111 3
1"
#23000000
0.
0"
#23500000
r1.177411764705881 A
r1.147294117647058 H
r1.124705882352942 O
1.
b10000 3
1"
#24000000
0.
0"
#24500000
r1.120000000000001 O
r1.143999999999999 H
r1.175999999999998 A
1.
b10001 3
1"
#25000000
0.
0"
#25500000
r1.174588235294116 A
r1.14070588235294 H
r1.11529411764706 O
1.
b10010 3
1"
#26000000
0.
0"
#26500000
r1.110588235294119 O
r1.137411764705881 H
r1.173176470588233 A
1.
b10011 3
1"
#27000000
0.
0"
#27500000
r1.171764705882351 A
r1.134117647058822 H
r1.105882352941178 O
1.
b10100 3
1"
#28000000
0.
0"
#28500000
r1.101176470588237 O
r1.130823529411763 H
r1.170352941176469 A
1.
b10101 3
1"
#29000000
0.
0"
#29500000
r1.168941176470586 A
r1.127529411764704 H
r1.096470588235295 O
1.
b10110 3
1"
#30000000
0.
0"
#30500000
r1.091764705882354 O
r1.124235294117645 H
r1.167529411764704 A
1.
b10111 3
1"
#31000000
0.
0"
#31500000
r1.166117647058821 A
r1.120941176470587 H
r1.087058823529413 O
1.
b11000 3
1"
#32000000
0.
0"
#32500000
r1.082352941176472 O
r1.117647058823528 H
r1.164705882352939 A
1.
b11001 3
1"
#33000000
0.
0"
#33500000
r1.163294117647056 A
r1.114352941176469 H
r1.077647058823531 O
1.
b11010 3
1"
#34000000
0.
0"
#34500000
r1.07294117647059 O
r1.11105882352941 H
r1.161882352941174 A
1.
b11011 3
1"
#35000000
0.
0"
#35500000
r1.160470588235291 A
r1.107764705882351 H
r1.068235294117649 O
1.
b11100 3
1"
#36000000
0.
0"
#36500000
r1.063529411764708 O
r1.104470588235292 H
r1.159058823529409 A
1.
b11101 3
1"
#37000000
0.
0"
#37500000
r1.157647058823527 A
r1.101176470588233 H
r1.058823529411766 O
1.
b11110 3
1"
#38000000
0.
0"
#38500000
r1.054117647058825 O
r1.097882352941174 H
r1.156235294117644 A
1.
b11111 3
1"
#39000000
0.
0"
#39500000
r1.154823529411762 A
r1.094588235294115 H
r1.049411764705884 O
1.
b100000 3
1"
#40000000
0.
0"
#40500000
r1.044705882352943 O
r1.091294117647057 H
r1.153411764705879 A
1.
b100001 3
1"
#41000000
0.
0"
#41500000
r1.151999999999997 A
r1.087999999999998 H
r1.040000000000002 O
1.
b100010 3
1"
#42000000
0.
0"
#42500000
r1.035294117647061 O
r1.084705882352939 H
r1.150588235294114 A
1.
b100011 3
1"
#43000000
0.
0"
#43500000
r1.149176470588232 A
r1.08141176470588 H
r1.03058823529412 O
1.
b100100 3
1"
#44000000
0.
0"
#44500000
r1.025882352941179 O
r1.078117647058821 H
r1.147764705882349 A
1.
b100101 3
1"
#45000000
0.
0"
#45500000
r1.146352941176467 A
r1.074823529411762 H
r1.021176470588238 O
1.
b100110 3
1"
#46000000
0.
0"
#46500000
r1.016470588235296 O
r1.071529411764703 H
r1.144941176470585 A
1.
b100111 3
1"
#47000000
0.
0"
#47500000
r1.143529411764702 A
r1.068235294117644 H
r1.011764705882355 O
1.
b101000 3
1"
#48000000
0.
0"
#48500000
r1.007058823529414 O
r1.064941176470585 H
r1.14211764705882 A
1.
b101001 3
1"
#49000000
0.
0"
#49500000
r1.140705882352937 A
r1.061647058823527 H
r1.002352941176473 O
1.
b101010 3
1"
#50000000
0.
0"
#50500000
r0.9976470588235319 O
r1.058352941176468 H
r1.139294117647055 A
1.
b101011 3
1"
#51000000
0.
0"
#51500000
r1.137882352941172 A
r1.055058823529409 H
r0.9929411764705907 O
1.
b101100 3
1"
#52000000
0.
0"
#52500000
r0.9882352941176494 O
r1.05176470588235 H
r1.13647058823529 A
1.
b101101 3
1"
#53000000
0.
0"
#53500000
r1.135058823529407 A
r1.048470588235291 H
r0.9835294117647082 O
1.
b101110 3
1"
#54000000
0.
0"
#54500000
r0.978823529411767 O
r1.045176470588232 H
r1.133647058823525 A
1.
b101111 3
1"
#55000000
0.
0"
#55500000
r1.132235294117643 A
r1.041882352941173 H
r0.9741176470588258 O
1.
b110000 3
1"
#56000000
0.
0"
#56500000
r0.9694117647058845 O
r1.038588235294114 H
r1.13082352941176 A
1.
b110001 3
1"
#57000000
0.
0"
#57500000
r1.129411764705878 A
r1.035294117647055 H
r0.9647058823529433 O
1.
b110010 3
1"
#58000000
0.
0"
#58500000
r0.9600000000000021 O
r1.031999999999996 H
r1.127999999999995 A
1.
b110011 3
1"
#59000000
0.
0"
#59500000
r1.126588235294113 A
r1.028705882352938 H
r0.9552941176470608 O
1.
b110100 3
1"
#60000000
0.
0"
#60500000
r0.9505882352941196 O
r1.025411764705879 H
r1.12517647058823 A
1.
b110101 3
1"
#61000000
0.
0"
#61500000
r1.123764705882348 A
r1.02211764705882 H
r0.9458823529411784 O
1.
b110110 3
1"
#62000000
0.
0"
#62500000
r0.9411764705882372 O
r1.018823529411761 H
r1.122352941176465 A
1.
b110111 3
1"
#63000000
0.
0"
#63500000
r1.120941176470583 A
r1.015529411764702 H
r0.9364705882352959 O
1.
b111000 3
1"
#64000000
0.
0"
#64500000
r0.9317647058823547 O
r1.012235294117643 H
r1.119529411764701 A
1.
b111001 3
1"
#65000000
0.
0"
#65500000
r1.118117647058818 A
r1.008941176470584 H
r0.9270588235294135 O
1.
b111010 3
1"
#66000000
0.
0"
#66500000
r0.9223529411764723 O
r1.005647058823525 H
r1.116705882352936 A
1.
b111011 3
1"
#67000000
0.
0"
#67500000
r1.115294117647053 A
r1.002352941176466 H
r0.917647058823531 O
1.
b111100 3
1"
#68000000
0.
0"
#68500000
r0.9129411764705898 O
r0.9990588235294077 H
r1.113882352941171 A
1.
b111101 3
1"
#69000000
0.
0"
#69500000
r1.112470588235288 A
r0.9957647058823489 H
r0.9082352941176486 O
1.
b111110 3
1"
#70000000
0.
0"
#70500000
r0.9035294117647074 O
r0.9924705882352901 H
r1.111058823529406 A
1.
b111111 3
1"
#71000000
0.
0"
#71500000
r1.109647058823523 A
r0.9891764705882313 H
r0.8988235294117661 O
1.
b1000000 3
1"
#72000000
0.
0"
#72500000
r0.8941176470588249 O
r0.9858823529411725 H
r1.108235294117641 A
1.
b1000001 3
1"
#73000000
0.
0"
#73500000
r1.106823529411759 A
r0.9825882352941138 H
r0.8894117647058837 O
1.
b1000010 3
1"
#74000000
0.
0"
#74500000
r0.8847058823529425 O
r0.979294117647055 H
r1.105411764705876 A
1.
b1000011 3
1"
#75000000
0.
0"
#75500000
r1.103999999999994 A
r0.9759999999999962 H
r0.8800000000000012 O
1.
b1000100 3
1"
#76000000
0.
0"
#76500000
r0.87529411764706 O
r0.9727058823529374 H
r1.102588235294111 A
1.
b1000101 3
1"
#77000000
0.
0"
#77500000
r1.101176470588229 A
r0.9694117647058786 H
r0.8705882352941188 O
1.
b1000110 3
1"
#78000000
0.
0"
#78500000
r0.8658823529411775 O
r0.9661176470588199 H
r1.099764705882346 A
1.
b1000111 3
1"
#79000000
0.
0"
#79500000
r1.098352941176464 A
r0.9628235294117611 H
r0.8611764705882363 O
1.
b1001000 3
1"
#80000000
0.
0"
#80500000
r0.8564705882352951 O
r0.9595294117647023 H
r1.096941176470581 A
1.
b1001001 3
1"
#81000000
0.
0"
#81500000
r1.095529411764699 A
r0.9562352941176435 H
r0.8517647058823539 O
1.
b1001010 3
1"
#82000000
0.
0"
#82500000
r0.8470588235294126 O
r0.9529411764705847 H
r1.094117647058817 A
1.
b1001011 3
1"
#83000000
0.
0"
#83500000
r1.092705882352934 A
r0.949647058823526 H
r0.8423529411764714 O
1.
b1001100 3
1"
#84000000
0.
0"
#84500000
r0.8376470588235302 O
r0.9463529411764672 H
r1.091294117647052 A
1.
b1001101 3
1"
#85000000
0.
0"
#85500000
r1.089882352941169 A
r0.9430588235294084 H
r0.832941176470589 O
1.
b1001110 3
1"
#86000000
0.
0"
#86500000
r0.8282352941176477 O
r0.9397647058823496 H
r1.088470588235287 A
1.
b1001111 3
1"
#87000000
0.
0"
#87500000
r1.087058823529404 A
r0.9364705882352908 H
r0.8235294117647065 O
1.
b1010000 3
1"
#88000000
0.
0"
#88500000
r0.8188235294117653 O
r0.9331764705882321 H
r1.085647058823522 A
1.
b1010001 3
1"
#89000000
0.
0"
#89500000
r1.084235294117639 A
r0.9298823529411733 H
r0.8141176470588241 O
1.
b1010010 3
1"
#90000000
0.
0"
#90500000
r0.8094117647058828 O
r0.9265882352941145 H
r1.082823529411757 A
1.
b1010011 3
1"
#91000000
0.
0"
#91500000
r1.081411764705875 A
r0.9232941176470557 H
r0.8047058823529416 O
1.
b1010100 3
1"
#92000000
0.
0"
#92500000
r0.8000000000000004 O
r0.9199999999999969 H
r1.079999999999992 A
1.
b1010101 3
1"
#93000000
0.
0"
#93500000
r1.07858823529411 A
r0.9167058823529382 H
r0.7952941176470592 O
1.
b1010110 3
1"
#94000000
0.
0"
#94500000
r0.7905882352941179 O
r0.9134117647058794 H
r1.077176470588227 A
1.
b1010111 3
1"
#95000000
0.
0"
#95500000
r1.075764705882345 A
r0.9101176470588206 H
r0.7858823529411767 O
1.
b1011000 3
1"
#96000000
0.
0"
#96500000
r0.7811764705882355 O
r0.9068235294117618 H
r1.074352941176462 A
1.
b1011001 3
1"
#97000000
0.
0"
#97500000
r1.07294117647058 A
r0.903529411764703 H
r0.7764705882352942 O
1.
b1011010 3
1"
#98000000
0.
0"
#98500000
r0.771764705882353 O
r0.9002352941176442 H
r1.071529411764697 A
1.
b1011011 3
1"
#99000000
0.
0"
#99500000
r1.070117647058815 A
r0.8969411764705855 H
r0.7670588235294118 O
1.
b1011100 3
1"
#100000000
0.
0"
#100500000
r0.7623529411764706 O
r0.8936470588235267 H
r1.068705882352933 A
1.
b1011101 3
1"
#101000000
0.
0"
#101500000
r1.06729411764705 A
r0.8903529411764679 H
r0.7576470588235293 O
1.
b1011110 3
1"
#102000000
0.
0"
#102500000
r0.7529411764705881 O
r0.8870588235294091 H
r1.065882352941168 A
1.
b1011111 3
1"
#103000000
0.
0"
#103500000
r1.064470588235285 A
r0.8837647058823503 H
r0.7482352941176469 O
1.
b1100000 3
1"
#104000000
0.
0"
#104500000
r0.7435294117647057 O
r0.8804705882352916 H
r1.063058823529403 A
1.
b1100001 3
1"
#105000000
0.
0"
#105500000
r1.06164705882352 A
r0.8771764705882328 H
r0.7388235294117644 O
1.
b1100010 3
1"
#106000000
0.
0"
#106500000
r0.7341176470588232 O
r0.873882352941174 H
r1.060235294117638 A
1.
b1100011 3
1"
#107000000
0.
0"
#107500000
r1.058823529411755 A
r0.8705882352941152 H
r0.729411764705882 O
1.
b1100100 3
1"
#108000000
0.
0"
#108500000
r0.7247058823529408 O
r0.8672941176470564 H
r1.057411764705873 A
1.
b1100101 3
1"
#109000000
0.
0"
#109500000
r1.055999999999991 A
r0.8639999999999977 H
r0.7199999999999995 O
1.
b1100110 3
1"
#110000000
0.
0"
#110500000
r0.7152941176470583 O
r0.8607058823529389 H
r1.054588235294108 A
1.
b1100111 3
1"
#111000000
0.
0"
#111500000
r1.053176470588226 A
r0.8574117647058801 H
r0.7105882352941171 O
1.
b1101000 3
1"
#112000000
0.
0"
#112500000
r0.7058823529411759 O
r0.8541176470588213 H
r1.051764705882343 A
1.
b1101001 3
1"
#113000000
0.
0"
#113500000
r1.050352941176461 A
r0.8508235294117625 H
r0.7011764705882346 O
1.
b1101010 3
1"
#114000000
0.
0"
#114500000
r0.6964705882352934 O
r0.8475294117647038 H
r1.048941176470578 A
1.
b1101011 3
1"
#115000000
0.
0"
#115500000
r1.047529411764696 A
r0.844235294117645 H
r0.6917647058823522 O
1.
b1101100 3
1"
#116000000
0.
0"
#116500000
r0.6870588235294109 O
r0.8409411764705862 H
r1.046117647058813 A
1.
b1101101 3
1"
#117000000
0.
0"
#117500000
r1.044705882352931 A
r0.8376470588235274 H
r0.6823529411764697 O
1.
b1101110 3
1"
#118000000
0.
0"
#118500000
r0.6776470588235285 O
r0.8343529411764686 H
r1.043294117647048 A
1.
b1101111 3
1"
#119000000
0.
0"
#119500000
r1.041882352941166 A
r0.8310588235294099 H
r0.6729411764705873 O
1.
b1110000 3
1"
#120000000
0.
0"
#120500000
r0.668235294117646 O
r0.8277647058823511 H
r1.040470588235284 A
1.
b1110001 3
1"
#121000000
0.
0"
#121500000
r1.039058823529401 A
r0.8244705882352923 H
r0.6635294117647048 O
1.
b1110010 3
1"
#122000000
0.
0"
#122500000
r0.6588235294117636 O
r0.8211764705882335 H
r1.037647058823519 A
1.
b1110011 3
1"
#123000000
0.
0"
#123500000
r1.036235294117636 A
r0.8178823529411747 H
r0.6541176470588224 O
1.
b1110100 3
1"
#124000000
0.
0"
#124500000
r0.6494117647058811 O
r0.8145882352941159 H
r1.034823529411754 A
1.
b1110101 3
1"
#125000000
0.
0"
#125500000
r1.033411764705871 A
r0.8112941176470572 H
r0.6447058823529399 O
1.
b1110110 3
1"
#126000000
0.
0"
#126500000
r0.6399999999999987 O
r0.8079999999999984 H
r1.031999999999989 A
1.
b1110111 3
1"
#127000000
0.
0"
#127500000
r1.030588235294106 A
r0.8047058823529396 H
r0.6352941176470575 O
1.
b1111000 3
1"
#128000000
0.
0"
#128500000
r0.6305882352941162 O
r0.8014117647058808 H
r1.029176470588224 A
1.
b1111001 3
1"
#129000000
0.
0"
#129500000
r1.027764705882342 A
r0.798117647058822 H
r0.625882352941175 O
1.
b1111010 3
1"
#130000000
0.
0"
#130500000
r0.6211764705882338 O
r0.7948235294117633 H
r1.026352941176459 A
1.
b1111011 3
1"
#131000000
0.
0"
#131500000
r1.024941176470577 A
r0.7915294117647045 H
r0.6164705882352925 O
1.
b1111100 3
1"
#132000000
0.
0"
#132500000
r0.6117647058823513 O
r0.7882352941176457 H
r1.023529411764694 A
1.
b1111101 3
1"
#133000000
0.
0"
#133500000
r1.022117647058812 A
r0.7849411764705869 H
r0.6070588235294101 O
1.
b1111110 3
1"
#134000000
0.
0"
#134500000
r0.6023529411764689 O
r0.7816470588235281 H
r1.020705882352929 A
1.
b1111111 3
1"
#135000000
0.
0"
#135500000
r1.019294117647047 A
r0.7783529411764694 H
r0.5976470588235276 O
1.
b10000000 3
1"
#136000000
0.
0"
#136500000
r0.5929411764705864 O
r0.7750588235294106 H
r1.017882352941164 A
1.
b10000001 3
1"
#137000000
0.
0"
#137500000
r1.016470588235282 A
r0.7717647058823518 H
r0.5882352941176452 O
1.
b10000010 3
1"
#138000000
0.
0"
#138500000
r0.583529411764704 O
r0.768470588235293 H
r1.0150588235294 A
1.
b10000011 3
1"
#139000000
0.
0"
#139500000
r1.013647058823517 A
r0.7651764705882342 H
r0.5788235294117627 O
1.
b10000100 3
1"
#140000000
0.
0"
#140500000
r0.5741176470588215 O
r0.7618823529411755 H
r1.012235294117635 A
1.
b10000101 3
1"
#141000000
0.
0"
#141500000
r1.010823529411752 A
r0.7585882352941167 H
r0.5694117647058803 O
1.
b10000110 3
1"
#142000000
0.
0"
#142500000
r0.5647058823529391 O
r0.7552941176470579 H
r1.00941176470587 A
1.
b10000111 3
1"
#143000000
0.
0"
#143500000
r1.007999999999987 A
r0.7519999999999991 H
r0.5599999999999978 O
1.
b10001000 3
1"
#144000000
0.
0"
#144500000
r0.5552941176470566 O
r0.7487058823529403 H
r1.006588235294105 A
1.
b10001001 3
1"
#145000000
0.
0"
#145500000
r1.005176470588222 A
r0.7454117647058816 H
r0.5505882352941154 O
1.
b10001010 3
1"
#146000000
0.
0"
#146500000
r0.5458823529411742 O
r0.7421176470588228 H
r1.00376470588234 A
1.
b10001011 3
1"
#147000000
0.
0"
#147500000
r1.002352941176458 A
r0.738823529411764 H
r0.5411764705882329 O
1.
b10001100 3
1"
#148000000
0.
0"
#148500000
r0.5364705882352917 O
r0.7355294117647052 H
r1.000941176470575 A
1.
b10001101 3
1"
#149000000
0.
0"
#149500000
r0.9995294117646928 A
r0.7322352941176464 H
r0.5317647058823505 O
1.
b10001110 3
1"
#150000000
0.
0"
#150500000
r0.5270588235294092 O
r0.7289411764705876 H
r0.9981176470588105 A
1.
b10001111 3
1"
#151000000
0.
0"
#151500000
r0.9967058823529281 A
r0.7256470588235289 H
r0.522352941176468 O
1.
b10010000 3
1"
#152000000
0.
0"
#152500000
r0.5176470588235268 O
r0.7223529411764701 H
r0.9952941176470458 A
1.
b10010001 3
1"
#153000000
0.
0"
#153500000
r0.9938823529411634 A
r0.7190588235294113 H
r0.5129411764705856 O
1.
b10010010 3
1"
#154000000
0.
0"
#154500000
r0.5082352941176443 O
r0.7157647058823525 H
r0.9924705882352811 A
1.
b10010011 3
1"
#155000000
0.
0"
#155500000
r0.9910588235293988 A
r0.7124705882352937 H
r0.5035294117647031 O
1.
b10010100 3
1"
#156000000
0.
0"
#156500000
r0.4988235294117619 O
r0.709176470588235 H
r0.9896470588235164 A
1.
b10010101 3
1"
#157000000
0.
0"
#157500000
r0.9882352941176341 A
r0.7058823529411762 H
r0.4941176470588208 O
1.
b10010110 3
1"
#158000000
0.
0"
#158500000
r0.4894117647058796 O
r0.7025882352941174 H
r0.9868235294117518 A
1.
b10010111 3
1"
#159000000
0.
0"
#159500000
r0.9854117647058694 A
r0.6992941176470586 H
r0.4847058823529384 O
1.
b10011000 3
1"
#160000000
0.
0"
#160500000
r0.4799999999999973 O
r0.6959999999999998 H
r0.9839999999999871 A
1.
b10011001 3
1"
#161000000
0.
0"
#161500000
r0.9825882352941048 A
r0.6927058823529411 H
r0.4752941176470561 O
1.
b10011010 3
1"
#162000000
0.
0"
#162500000
r0.4705882352941149 O
r0.6894117647058823 H
r0.9811764705882224 A
1.
b10011011 3
1"
#163000000
0.
0"
#163500000
r0.9797647058823401 A
r0.6861176470588235 H
r0.4658823529411737 O
1.
b10011100 3
1"
#164000000
0.
0"
#164500000
r0.4611764705882326 O
r0.6828235294117647 H
r0.9783529411764578 A
1.
b10011101 3
1"
#165000000
0.
0"
#165500000
r0.9769411764705754 A
r0.6795294117647059 H
r0.4564705882352914 O
1.
b10011110 3
1"
#166000000
0.
0"
#166500000
r0.4517647058823502 O
r0.6762352941176472 H
r0.9755294117646931 A
1.
b10011111 3
1"
#167000000
0.
0"
#167500000
r0.9741176470588108 A
r0.6729411764705884 H
r0.4470588235294091 O
1.
b10100000 3
1"
#168000000
0.
0"
#168500000
r0.4423529411764679 O
r0.6696470588235296 H
r0.9727058823529284 A
1.
b10100001 3
1"
#169000000
0.
0"
#169500000
r0.9712941176470461 A
r0.6663529411764708 H
r0.4376470588235267 O
1.
b10100010 3
1"
#170000000
0.
0"
#170500000
r0.4329411764705856 O
r0.663058823529412 H
r0.9698823529411638 A
1.
b10100011 3
1"
#171000000
0.
0"
#171500000
r0.9684705882352814 A
r0.6597647058823533 H
r0.4282352941176444 O
1.
b10100100 3
1"
#172000000
0.
0"
#172500000
r0.4235294117647032 O
r0.6564705882352945 H
r0.9670588235293991 A
1.
b10100101 3
1"
#173000000
0.
0"
#173500000
r0.9656470588235168 A
r0.6531764705882357 H
r0.418823529411762 O
1.
b10100110 3
1"
#174000000
0.
0"
#174500000
r0.4141176470588209 O
r0.6498823529411769 H
r0.9642352941176344 A
1.
b10100111 3
1"
#175000000
0.
0"
#175500000
r0.9628235294117521 A
r0.6465882352941181 H
r0.4094117647058797 O
1.
b10101000 3
1"
#176000000
0.
0"
#176500000
r0.4047058823529385 O
r0.6432941176470593 H
r0.9614117647058698 A
1.
b10101001 3
1"
#177000000
0.
0"
#177500000
r0.9599999999999874 A
r0.6400000000000006 H
r0.3999999999999974 O
1.
b10101010 3
1"
#178000000
0.
0"
#178500000
r0.3952941176470562 O
r0.6367058823529418 H
r0.9585882352941051 A
1.
b10101011 3
1"
#179000000
0.
0"
#179500000
r0.9571764705882227 A
r0.633411764705883 H
r0.390588235294115 O
1.
b10101100 3
1"
#180000000
0.
0"
#180500000
r0.3858823529411738 O
r0.6301176470588242 H
r0.9557647058823404 A
1.
b10101101 3
1"
#181000000
0.
0"
#181500000
r0.9543529411764581 A
r0.6268235294117654 H
r0.3811764705882327 O
1.
b10101110 3
1"
#182000000
0.
0"
#182500000
r0.3764705882352915 O
r0.6235294117647067 H
r0.9529411764705757 A
1.
b10101111 3
1"
#183000000
0.
0"
#183500000
r0.9515294117646934 A
r0.6202352941176479 H
r0.3717647058823503 O
1.
b10110000 3
1"
#184000000
0.
0"
#184500000
r0.3670588235294092 O
r0.6169411764705891 H
r0.9501176470588111 A
1.
b10110001 3
1"
#185000000
0.
0"
#185500000
r0.9487058823529287 A
r0.6136470588235303 H
r0.362352941176468 O
1.
b10110010 3
1"
#186000000
0.
0"
#186500000
r0.3576470588235268 O
r0.6103529411764715 H
r0.9472941176470464 A
1.
b10110011 3
1"
#187000000
0.
0"
#187500000
r0.9458823529411641 A
r0.6070588235294128 H
r0.3529411764705856 O
1.
b10110100 3
1"
#188000000
0.
0"
#188500000
r0.3482352941176445 O
r0.603764705882354 H
r0.9444705882352817 A
1.
b10110101 3
1"
#189000000
0.
0"
#189500000
r0.9430588235293994 A
r0.6004705882352952 H
r0.3435294117647033 O
1.
b10110110 3
1"
#190000000
0.
0"
#190500000
r0.3388235294117621 O
r0.5971764705882364 H
r0.9416470588235171 A
1.
b10110111 3
1"
#191000000
0.
0"
#191500000
r0.9402352941176347 A
r0.5938823529411776 H
r0.334117647058821 O
1.
b10111000 3
1"
#192000000
0.
0"
#192500000
r0.3294117647058798 O
r0.5905882352941189 H
r0.9388235294117524 A
1.
b10111001 3
1"
#193000000
0.
0"
#193500000
r0.9374117647058701 A
r0.5872941176470601 H
r0.3247058823529386 O
1.
b10111010 3
1"
#194000000
0.
0"
#194500000
r0.3199999999999975 O
r0.5840000000000013 H
r0.9359999999999877 A
1.
b10111011 3
1"
#195000000
0.
0"
#195500000
r0.9345882352941054 A
r0.5807058823529425 H
r0.3152941176470563 O
1.
b10111100 3
1"
#196000000
0.
0"
#196500000
r0.3105882352941151 O
r0.5774117647058837 H
r0.9331764705882231 A
1.
b10111101 3
1"
#197000000
0.
0"
#197500000
r0.9317647058823407 A
r0.574117647058825 H
r0.3058823529411739 O
1.
b10111110 3
1"
#198000000
0.
0"
#198500000
r0.3011764705882328 O
r0.5708235294117662 H
r0.9303529411764584 A
1.
b10111111 3
1"
#199000000
0.
0"
#199500000
r0.9289411764705761 A
r0.5675294117647074 H
r0.2964705882352916 O
1.
b11000000 3
1"
#200000000
0.
0"
#200500000
r0.2917647058823504 O
r0.5642352941176486 H
r0.9275294117646937 A
1.
b11000001 3
1"
#201000000
0.
0"
#201500000
r0.9261176470588114 A
r0.5609411764705898 H
r0.2870588235294093 O
1.
b11000010 3
1"
#202000000
0.
0"
#202500000
r0.2823529411764681 O
r0.557647058823531 H
r0.9247058823529291 A
1.
b11000011 3
1"
#203000000
0.
0"
#203500000
r0.9232941176470467 A
r0.5543529411764723 H
r0.2776470588235269 O
1.
b11000100 3
1"
#204000000
0.
0"
#204500000
r0.2729411764705857 O
r0.5510588235294135 H
r0.9218823529411644 A
1.
b11000101 3
1"
#205000000
0.
0"
#205500000
r0.9204705882352821 A
r0.5477647058823547 H
r0.2682352941176446 O
1.
b11000110 3
1"
#206000000
0.
0"
#206500000
r0.2635294117647034 O
r0.5444705882352959 H
r0.9190588235293997 A
1.
b11000111 3
1"
#207000000
0.
0"
#207500000
r0.9176470588235174 A
r0.5411764705882371 H
r0.2588235294117622 O
1.
b11001000 3
1"
#208000000
0.
0"
#208500000
r0.2541176470588211 O
r0.5378823529411784 H
r0.916235294117635 A
1.
b11001001 3
1"
#209000000
0.
0"
